How popular is Donald Trump? · Portfolio website for Ignacio Pascale
…
  #summarise statistics of the grouped data
  summarise(avg_net_apr = mean(approve - disapprove), 
            std = sd(approve - disapprove), 
            count = n(), 
            t_crit = qt(.975, count-1)) %>% 
  mutate(se = std / sqrt(count)) %>% 
  
  #calculate confidence interval
  mutate(upper = avg_net_apr + t_crit*se,
          lower = avg_net_apr - t_crit*se) 
  
grouped_df

## # A tibble: 191 x 9
## # Groups:   weeknr [53]
##    weeknr yearnr avg_net_apr   std count t_crit    se  upper  lower
##     <dbl>  <dbl>       <dbl> <dbl> <int>  <dbl> <dbl>  <dbl>  <dbl>
##  1      1   2018      -10.7   2.09    20   2.09 0.466  -9.69 -11.6 
##  2      1   2019      -10.0   3.95    27   2.06 0.760  -8.44 -11.6 
##  3      1   2020       -8.57  4.65    14   2.16 1.24   -5.88 -11.3 
##  4      2   2018      -11.5   3.61    26   2.06 0.708 -10.1  -13.0 
##  5      2   2019      -11.2   2.23    33   2.04 0.389 -10.4  -12.0 
##  6      2   2020       -7.8   4.27    20   2.09 0.956  -5.80  -9.80
##  7      3   2018      -12.1   4.57    33   2.04 0.795 -10.5  -13.7 
##  8      3   2019      -12.9   2.16    38   2.03 0.351 -12.2  -13.6 
##  9      3   2020       -7.52  6.11    21   2.09 1.33   -4.74 -10.3 
## 10      4   2017        3.26  8.11    13   2.18 2.25    8.17  -1.64
## # … with 181 more rows
…
